[
  {
    "line": 1,
    "elements": [
      {
        "line": 12,
        "name": "Verify the customer view endpoint",
        "description": "",
        "id": "customer-view;verify-the-customer-view-endpoint;;2",
        "type": "scenario",
        "keyword": "Scenario Outline",
        "steps": [
          {
            "result": {
              "duration": 432698800,
              "status": "passed"
            },
            "line": 5,
            "name": "User prepares a GET request using the following parameters: \"http://localhost:4547/Blog.Api/\"",
            "match": {
              "arguments": [
                {
                  "val": "http://localhost:4547/Blog.Api/",
                  "offset": 61
                }
              ],
              "location": "CommonStepDefinitions.user_prepares_a_GET_request_using_the_following_parameters(String)"
            },
            "matchedColumns": [
              0
            ],
            "keyword": "Given "
          },
          {
            "result": {
              "duration": 1150297800,
              "status": "passed"
            },
            "line": 6,
            "name": "GET request is triggered for the following EndPoint: \"{customerID}/CustomerView\" and path parameter \"1111\"",
            "match": {
              "arguments": [
                {
                  "val": "{customerID}/CustomerView",
                  "offset": 54
                },
                {
                  "val": "1111",
                  "offset": 101
                }
              ],
              "location": "CommonStepDefinitions.get_request_is_triggered_for_the_following_EndPoint_and_path_parameter(String,String)"
            },
            "matchedColumns": [
              1,
              2
            ],
            "keyword": "When "
          },
          {
            "result": {
              "duration": 11855400,
              "status": "passed"
            },
            "line": 7,
            "name": "Status code \"200\" should be verified",
            "match": {
              "arguments": [
                {
                  "val": "200",
                  "offset": 13
                }
              ],
              "location": "CommonStepDefinitions.status_code_should_be_verified(int)"
            },
            "matchedColumns": [
              7
            ],
            "keyword": "Then "
          },
          {
            "result": {
              "duration": 4724487700,
              "status": "passed"
            },
            "line": 8,
            "name": "Verify that customer details should be  \"1111\", \"testerA@abc.com\", \"testerBFirst\", \"testerBLast\"",
            "match": {
              "arguments": [
                {
                  "val": "1111",
                  "offset": 41
                },
                {
                  "val": "testerA@abc.com",
                  "offset": 49
                },
                {
                  "val": "testerBFirst",
                  "offset": 68
                },
                {
                  "val": "testerBLast",
                  "offset": 84
                }
              ],
              "location": "CommonStepDefinitions.verify_that_customer_details_should_be(String,String,String,String)"
            },
            "matchedColumns": [
              3,
              4,
              5,
              6
            ],
            "keyword": "And "
          }
        ]
      },
      {
        "line": 13,
        "name": "Verify the customer view endpoint",
        "description": "",
        "id": "customer-view;verify-the-customer-view-endpoint;;3",
        "type": "scenario",
        "keyword": "Scenario Outline",
        "steps": [
          {
            "result": {
              "duration": 413700,
              "status": "passed"
            },
            "line": 5,
            "name": "User prepares a GET request using the following parameters: \"http://localhost:4547/Blog.Api/\"",
            "match": {
              "arguments": [
                {
                  "val": "http://localhost:4547/Blog.Api/",
                  "offset": 61
                }
              ],
              "location": "CommonStepDefinitions.user_prepares_a_GET_request_using_the_following_parameters(String)"
            },
            "matchedColumns": [
              0
            ],
            "keyword": "Given "
          },
          {
            "result": {
              "duration": 164167500,
              "status": "passed"
            },
            "line": 6,
            "name": "GET request is triggered for the following EndPoint: \"{customerID}/CustomerView\" and path parameter \"2222\"",
            "match": {
              "arguments": [
                {
                  "val": "{customerID}/CustomerView",
                  "offset": 54
                },
                {
                  "val": "2222",
                  "offset": 101
                }
              ],
              "location": "CommonStepDefinitions.get_request_is_triggered_for_the_following_EndPoint_and_path_parameter(String,String)"
            },
            "matchedColumns": [
              1,
              2
            ],
            "keyword": "When "
          },
          {
            "result": {
              "duration": 1479700,
              "status": "passed"
            },
            "line": 7,
            "name": "Status code \"200\" should be verified",
            "match": {
              "arguments": [
                {
                  "val": "200",
                  "offset": 13
                }
              ],
              "location": "CommonStepDefinitions.status_code_should_be_verified(int)"
            },
            "matchedColumns": [
              7
            ],
            "keyword": "Then "
          },
          {
            "result": {
              "duration": 68256100,
              "status": "passed"
            },
            "line": 8,
            "name": "Verify that customer details should be  \"2222\", \"testerB@abc.com\", \"testerBFirst\", \"testerBLast\"",
            "match": {
              "arguments": [
                {
                  "val": "2222",
                  "offset": 41
                },
                {
                  "val": "testerB@abc.com",
                  "offset": 49
                },
                {
                  "val": "testerBFirst",
                  "offset": 68
                },
                {
                  "val": "testerBLast",
                  "offset": 84
                }
              ],
              "location": "CommonStepDefinitions.verify_that_customer_details_should_be(String,String,String,String)"
            },
            "matchedColumns": [
              3,
              4,
              5,
              6
            ],
            "keyword": "And "
          }
        ]
      },
      {
        "line": 14,
        "name": "Verify the customer view endpoint",
        "description": "",
        "id": "customer-view;verify-the-customer-view-endpoint;;4",
        "type": "scenario",
        "keyword": "Scenario Outline",
        "steps": [
          {
            "result": {
              "duration": 66300,
              "status": "passed"
            },
            "line": 5,
            "name": "User prepares a GET request using the following parameters: \"http://localhost:4547/Blog.Api/\"",
            "match": {
              "arguments": [
                {
                  "val": "http://localhost:4547/Blog.Api/",
                  "offset": 61
                }
              ],
              "location": "CommonStepDefinitions.user_prepares_a_GET_request_using_the_following_parameters(String)"
            },
            "matchedColumns": [
              0
            ],
            "keyword": "Given "
          },
          {
            "result": {
              "duration": 17688300,
              "status": "passed"
            },
            "line": 6,
            "name": "GET request is triggered for the following EndPoint: \"{customerID}/CustomerView\" and path parameter \"3333\"",
            "match": {
              "arguments": [
                {
                  "val": "{customerID}/CustomerView",
                  "offset": 54
                },
                {
                  "val": "3333",
                  "offset": 101
                }
              ],
              "location": "CommonStepDefinitions.get_request_is_triggered_for_the_following_EndPoint_and_path_parameter(String,String)"
            },
            "matchedColumns": [
              1,
              2
            ],
            "keyword": "When "
          },
          {
            "result": {
              "duration": 216200,
              "status": "passed"
            },
            "line": 7,
            "name": "Status code \"200\" should be verified",
            "match": {
              "arguments": [
                {
                  "val": "200",
                  "offset": 13
                }
              ],
              "location": "CommonStepDefinitions.status_code_should_be_verified(int)"
            },
            "matchedColumns": [
              7
            ],
            "keyword": "Then "
          },
          {
            "result": {
              "duration": 21306800,
              "status": "passed"
            },
            "line": 8,
            "name": "Verify that customer details should be  \"3333\", \"testerC@abc.com\", \"testerCFirst\", \"testerCLast\"",
            "match": {
              "arguments": [
                {
                  "val": "3333",
                  "offset": 41
                },
                {
                  "val": "testerC@abc.com",
                  "offset": 49
                },
                {
                  "val": "testerCFirst",
                  "offset": 68
                },
                {
                  "val": "testerCLast",
                  "offset": 84
                }
              ],
              "location": "CommonStepDefinitions.verify_that_customer_details_should_be(String,String,String,String)"
            },
            "matchedColumns": [
              3,
              4,
              5,
              6
            ],
            "keyword": "And "
          }
        ]
      },
      {
        "line": 15,
        "name": "Verify the customer view endpoint",
        "description": "",
        "id": "customer-view;verify-the-customer-view-endpoint;;5",
        "type": "scenario",
        "keyword": "Scenario Outline",
        "steps": [
          {
            "result": {
              "duration": 67500,
              "status": "passed"
            },
            "line": 5,
            "name": "User prepares a GET request using the following parameters: \"http://localhost:4547/Blog.Api/\"",
            "match": {
              "arguments": [
                {
                  "val": "http://localhost:4547/Blog.Api/",
                  "offset": 61
                }
              ],
              "location": "CommonStepDefinitions.user_prepares_a_GET_request_using_the_following_parameters(String)"
            },
            "matchedColumns": [
              0
            ],
            "keyword": "Given "
          },
          {
            "result": {
              "duration": 19271400,
              "status": "passed"
            },
            "line": 6,
            "name": "GET request is triggered for the following EndPoint: \"{customerID}/CustomerView\" and path parameter \"4444\"",
            "match": {
              "arguments": [
                {
                  "val": "{customerID}/CustomerView",
                  "offset": 54
                },
                {
                  "val": "4444",
                  "offset": 101
                }
              ],
              "location": "CommonStepDefinitions.get_request_is_triggered_for_the_following_EndPoint_and_path_parameter(String,String)"
            },
            "matchedColumns": [
              1,
              2
            ],
            "keyword": "When "
          },
          {
            "result": {
              "duration": 236000,
              "status": "passed"
            },
            "line": 7,
            "name": "Status code \"200\" should be verified",
            "match": {
              "arguments": [
                {
                  "val": "200",
                  "offset": 13
                }
              ],
              "location": "CommonStepDefinitions.status_code_should_be_verified(int)"
            },
            "matchedColumns": [
              7
            ],
            "keyword": "Then "
          },
          {
            "result": {
              "duration": 20480500,
              "status": "passed"
            },
            "line": 8,
            "name": "Verify that customer details should be  \"3333\", \"testerD@abc.com\", \"testerDFirst\", \"testerDLast\"",
            "match": {
              "arguments": [
                {
                  "val": "3333",
                  "offset": 41
                },
                {
                  "val": "testerD@abc.com",
                  "offset": 49
                },
                {
                  "val": "testerDFirst",
                  "offset": 68
                },
                {
                  "val": "testerDLast",
                  "offset": 84
                }
              ],
              "location": "CommonStepDefinitions.verify_that_customer_details_should_be(String,String,String,String)"
            },
            "matchedColumns": [
              3,
              4,
              5,
              6
            ],
            "keyword": "And "
          }
        ]
      },
      {
        "line": 16,
        "name": "Verify the customer view endpoint",
        "description": "",
        "id": "customer-view;verify-the-customer-view-endpoint;;6",
        "type": "scenario",
        "keyword": "Scenario Outline",
        "steps": [
          {
            "result": {
              "duration": 64600,
              "status": "passed"
            },
            "line": 5,
            "name": "User prepares a GET request using the following parameters: \"http://localhost:4547/Blog.Api/\"",
            "match": {
              "arguments": [
                {
                  "val": "http://localhost:4547/Blog.Api/",
                  "offset": 61
                }
              ],
              "location": "CommonStepDefinitions.user_prepares_a_GET_request_using_the_following_parameters(String)"
            },
            "matchedColumns": [
              0
            ],
            "keyword": "Given "
          },
          {
            "result": {
              "duration": 13516700,
              "status": "passed"
            },
            "line": 6,
            "name": "GET request is triggered for the following EndPoint: \"{customerID}/CustomerView\" and path parameter \"5555\"",
            "match": {
              "arguments": [
                {
                  "val": "{customerID}/CustomerView",
                  "offset": 54
                },
                {
                  "val": "5555",
                  "offset": 101
                }
              ],
              "location": "CommonStepDefinitions.get_request_is_triggered_for_the_following_EndPoint_and_path_parameter(String,String)"
            },
            "matchedColumns": [
              1,
              2
            ],
            "keyword": "When "
          },
          {
            "result": {
              "duration": 198100,
              "status": "passed"
            },
            "line": 7,
            "name": "Status code \"200\" should be verified",
            "match": {
              "arguments": [
                {
                  "val": "200",
                  "offset": 13
                }
              ],
              "location": "CommonStepDefinitions.status_code_should_be_verified(int)"
            },
            "matchedColumns": [
              7
            ],
            "keyword": "Then "
          },
          {
            "result": {
              "duration": 12334300,
              "status": "passed"
            },
            "line": 8,
            "name": "Verify that customer details should be  \"5555\", \"testerE@abc.com\", \"testerEFirst\", \"testerELast\"",
            "match": {
              "arguments": [
                {
                  "val": "5555",
                  "offset": 41
                },
                {
                  "val": "testerE@abc.com",
                  "offset": 49
                },
                {
                  "val": "testerEFirst",
                  "offset": 68
                },
                {
                  "val": "testerELast",
                  "offset": 84
                }
              ],
              "location": "CommonStepDefinitions.verify_that_customer_details_should_be(String,String,String,String)"
            },
            "matchedColumns": [
              3,
              4,
              5,
              6
            ],
            "keyword": "And "
          }
        ]
      },
      {
        "line": 17,
        "name": "Verify the customer view endpoint",
        "description": "",
        "id": "customer-view;verify-the-customer-view-endpoint;;7",
        "type": "scenario",
        "keyword": "Scenario Outline",
        "steps": [
          {
            "result": {
              "duration": 73800,
              "status": "passed"
            },
            "line": 5,
            "name": "User prepares a GET request using the following parameters: \"http://localhost:4547/Blog.Api/\"",
            "match": {
              "arguments": [
                {
                  "val": "http://localhost:4547/Blog.Api/",
                  "offset": 61
                }
              ],
              "location": "CommonStepDefinitions.user_prepares_a_GET_request_using_the_following_parameters(String)"
            },
            "matchedColumns": [
              0
            ],
            "keyword": "Given "
          },
          {
            "result": {
              "duration": 16766100,
              "status": "passed"
            },
            "line": 6,
            "name": "GET request is triggered for the following EndPoint: \"{customerID}/CustomerView\" and path parameter \"6666\"",
            "match": {
              "arguments": [
                {
                  "val": "{customerID}/CustomerView",
                  "offset": 54
                },
                {
                  "val": "6666",
                  "offset": 101
                }
              ],
              "location": "CommonStepDefinitions.get_request_is_triggered_for_the_following_EndPoint_and_path_parameter(String,String)"
            },
            "matchedColumns": [
              1,
              2
            ],
            "keyword": "When "
          },
          {
            "result": {
              "duration": 256200,
              "status": "passed"
            },
            "line": 7,
            "name": "Status code \"200\" should be verified",
            "match": {
              "arguments": [
                {
                  "val": "200",
                  "offset": 13
                }
              ],
              "location": "CommonStepDefinitions.status_code_should_be_verified(int)"
            },
            "matchedColumns": [
              7
            ],
            "keyword": "Then "
          },
          {
            "result": {
              "duration": 17013300,
              "status": "passed"
            },
            "line": 8,
            "name": "Verify that customer details should be  \"6666\", \"testerF@abc.com\", \"testerFFirst\", \"testerFLast\"",
            "match": {
              "arguments": [
                {
                  "val": "6666",
                  "offset": 41
                },
                {
                  "val": "testerF@abc.com",
                  "offset": 49
                },
                {
                  "val": "testerFFirst",
                  "offset": 68
                },
                {
                  "val": "testerFLast",
                  "offset": 84
                }
              ],
              "location": "CommonStepDefinitions.verify_that_customer_details_should_be(String,String,String,String)"
            },
            "matchedColumns": [
              3,
              4,
              5,
              6
            ],
            "keyword": "And "
          }
        ]
      },
      {
        "line": 27,
        "name": "Verify the customer view endpoint does not return as details for an invalid ID",
        "description": "",
        "id": "customer-view;verify-the-customer-view-endpoint-does-not-return-as-details-for-an-invalid-id;;2",
        "type": "scenario",
        "keyword": "Scenario Outline",
        "steps": [
          {
            "result": {
              "duration": 52100,
              "status": "passed"
            },
            "line": 20,
            "name": "User prepares a GET request using the following parameters: \"http://localhost:4547/Blog.Api/\"",
            "match": {
              "arguments": [
                {
                  "val": "http://localhost:4547/Blog.Api/",
                  "offset": 61
                }
              ],
              "location": "CommonStepDefinitions.user_prepares_a_GET_request_using_the_following_parameters(String)"
            },
            "matchedColumns": [
              0
            ],
            "keyword": "Given "
          },
          {
            "result": {
              "duration": 10941400,
              "status": "passed"
            },
            "line": 21,
            "name": "GET request is triggered for the following EndPoint: \"{customerID}/CustomerView\" and path parameter \"22\"",
            "match": {
              "arguments": [
                {
                  "val": "{customerID}/CustomerView",
                  "offset": 54
                },
                {
                  "val": "22",
                  "offset": 101
                }
              ],
              "location": "CommonStepDefinitions.get_request_is_triggered_for_the_following_EndPoint_and_path_parameter(String,String)"
            },
            "matchedColumns": [
              1,
              2
            ],
            "keyword": "When "
          },
          {
            "result": {
              "duration": 131900,
              "status": "passed"
            },
            "line": 22,
            "name": "Status code \"404\" should be verified",
            "match": {
              "arguments": [
                {
                  "val": "404",
                  "offset": 13
                }
              ],
              "location": "CommonStepDefinitions.status_code_should_be_verified(int)"
            },
            "matchedColumns": [
              3
            ],
            "keyword": "Then "
          }
        ]
      }
    ],
    "name": "Customer View",
    "description": "",
    "id": "customer-view",
    "keyword": "Feature",
    "uri": "CustomerView.feature"
  },
  {
    "line": 1,
    "elements": [
      {
        "line": 12,
        "name": "Verify the customers endpoint",
        "description": "",
        "id": "validate-list-all-customers;verify-the-customers-endpoint;;2",
        "type": "scenario",
        "keyword": "Scenario Outline",
        "steps": [
          {
            "result": {
              "duration": 79500,
              "status": "passed"
            },
            "line": 5,
            "name": "User prepares a GET request using the following parameters: \"http://localhost:4547/Blog.Api/\"",
            "match": {
              "arguments": [
                {
                  "val": "http://localhost:4547/Blog.Api/",
                  "offset": 61
                }
              ],
              "location": "CommonStepDefinitions.user_prepares_a_GET_request_using_the_following_parameters(String)"
            },
            "matchedColumns": [
              0
            ],
            "keyword": "Given "
          },
          {
            "result": {
              "duration": 13459300,
              "status": "passed"
            },
            "line": 6,
            "name": "GET request is triggered for the following EndPoint: \"Customers\"",
            "match": {
              "arguments": [
                {
                  "val": "Customers",
                  "offset": 54
                }
              ],
              "location": "CommonStepDefinitions.get_request_is_triggered_for_the_following_EndPoint(String)"
            },
            "matchedColumns": [
              1
            ],
            "keyword": "When "
          },
          {
            "result": {
              "duration": 128800,
              "status": "passed"
            },
            "line": 7,
            "name": "Status code \"404\" should be verified",
            "match": {
              "arguments": [
                {
                  "val": "404",
                  "offset": 13
                }
              ],
              "location": "CommonStepDefinitions.status_code_should_be_verified(int)"
            },
            "matchedColumns": [
              2
            ],
            "keyword": "Then "
          },
          {
            "result": {
              "duration": 16584800,
              "status": "passed"
            },
            "line": 8,
            "name": "Verify that the number of customer records in the response is \"6\"",
            "match": {
              "arguments": [
                {
                  "val": "6",
                  "offset": 63
                }
              ],
              "location": "CommonStepDefinitions.verify_that_the_number_of_customer_records_in_the_response_is(int)"
            },
            "matchedColumns": [
              3
            ],
            "keyword": "And "
          }
        ]
      },
      {
        "line": 23,
        "name": "Verify the customer IDs in the customers endpoint",
        "description": "",
        "id": "validate-list-all-customers;verify-the-customer-ids-in-the-customers-endpoint;;2",
        "type": "scenario",
        "keyword": "Scenario Outline",
        "steps": [
          {
            "result": {
              "duration": 71800,
              "status": "passed"
            },
            "line": 16,
            "name": "User prepares a GET request using the following parameters: \"http://localhost:4547/Blog.Api/\"",
            "match": {
              "arguments": [
                {
                  "val": "http://localhost:4547/Blog.Api/",
                  "offset": 61
                }
              ],
              "location": "CommonStepDefinitions.user_prepares_a_GET_request_using_the_following_parameters(String)"
            },
            "matchedColumns": [
              0
            ],
            "keyword": "Given "
          },
          {
            "result": {
              "duration": 26709200,
              "status": "passed"
            },
            "line": 17,
            "name": "GET request is triggered for the following EndPoint: \"Customers\"",
            "match": {
              "arguments": [
                {
                  "val": "Customers",
                  "offset": 54
                }
              ],
              "location": "CommonStepDefinitions.get_request_is_triggered_for_the_following_EndPoint(String)"
            },
            "matchedColumns": [
              1
            ],
            "keyword": "When "
          },
          {
            "result": {
              "duration": 948800,
              "status": "passed"
            },
            "line": 18,
            "name": "Status code \"404\" should be verified",
            "match": {
              "arguments": [
                {
                  "val": "404",
                  "offset": 13
                }
              ],
              "location": "CommonStepDefinitions.status_code_should_be_verified(int)"
            },
            "matchedColumns": [
              2
            ],
            "keyword": "Then "
          },
          {
            "result": {
              "duration": 141321000,
              "status": "passed"
            },
            "line": 19,
            "name": "Verify that the displayed customer IDs are\" 1111,2222,3333,4444,5555,6666\"",
            "match": {
              "arguments": [
                {
                  "val": " 1111,2222,3333,4444,5555,6666",
                  "offset": 43
                }
              ],
              "location": "CommonStepDefinitions.verify_that_the_displayed_customer_IDs_are(String)"
            },
            "matchedColumns": [
              3
            ],
            "keyword": "And "
          }
        ]
      }
    ],
    "name": "Validate List All Customers",
    "description": "",
    "id": "validate-list-all-customers",
    "keyword": "Feature",
    "uri": "ListAllCustomer.feature"
  }
]